literal A;
int B;
int D;
double C;



printf( "Digite B");
scanf(“%d”, &B);
printf( "Digite A:");
scanf(“%s”, A);
T0 = B > 2;
if(T0) {
T1 = B <= 4;
if(T1) {
printf( "B esta entre 2 e 4");
}
}
T2 = B + 1;
B = T2;
T3 = B + 2;
B = T3;
T4 = B + 3;
B = T4;
D = B;
C = 5.0;
printf( "\nB=\n");
printf(D);
printf( "\n");
printf(C);
printf( "\n");
printf(A);
